{
  "type": "service_account",
  "project_id": "back-end-ml",
  "private_key_id": "e01d89e26893740889a701a54d333ecdf4edeed8",
  "private_key": "-----BEGIN PRIVATE KEY-----\nMIIEvQIBADANBgkqhkiG9w0BAQEFAASCBKcwggSjAgEAAoIBAQDELAK4I4s7aD1Q\nSsxrbiFAEhRPShWvfZPfEh8mP3DhOE8TpdmoUSEUG1MTvMmRQZKw94kaLjLqM1sg\niVfe9RlksQZ+CTi/EIfnMJFpVOiz6e4mRD9Um0ghxaQHg6fIdVNIJ/ADrxV9jPkA\nayR3kpzRYx8FoMIut23qWx2l2M+saPCUbRTxpVIZzJZxwdHk/m/Rt+du8hC0fjvT\n5hjsXzPxiYMTYXhBfFe6HXtfjuvrmNekua0ekDykZPqkTQvf5GnBfdGUfRGb0j4c\nH8LpAO3tfwWFNplYKwBlpn49ocVmxI27hTcg8k3MWLHBJbcUJUGfVVh2F7ULUYNp\nKzeaXFYvAgMBAAECggEAAmN+zPsx0NFeHcIrZwt6QCt4L9b5GJ/w0wCHfJG9MCDd\nZaHZWqFSQ8ppYo4j7i7cOGdrNfRmDk/9xhGmDkLxwjYdnB9En5716KzAuIWeJ8Kr\nca/XDZKueCrN6oGB44D6OKCz3XeeTV8QER883G/elPYeBJWGh8cYAYiGfeR78t92\nwLkP0ch01sY/gT0b4jSviVQVxyMemFCsZJ8fytlrDQBRXf4VlKaa6/smDyOce771\n17bZNwNS8YhxLJcVjOlacOAEbPxhnsCq+DzHmnszZHTbaQiiofHOJeQMKxCrlcwW\nV0x0lGr7Xad+Fo5AsdA+OlF4QB/8y98xw5pNkuKvcQKBgQD6bzDbS9N6b6kUTNmc\n6WiD3WSi1ySQDJ949n8YjSVjug5RZU6lbyNzoJ8pMjJ68759uomD7WmAkfBH4MVl\nYXHpF/SdZu50StIw0ifeNhHXj+oVG+hMh1uer0WkDPdyC2Nf9TyxS0RhdbFf+Eb0\njRXs3l8/s7lkuE1L8NdFUTZKZQKBgQDIiBoL0qS7CgfUbyLf3ofjm+fD4UygRpS/\n4gxnCYEQPhmNVGzI9jeqKstM87j0D8VPbsdICI6wP5Czt0GroM3RblyEDoBOCQxU\n27FeMv8rAcCcZXENwKEoEMghsVvXYJ4WO3D7nBNdssTqeI9xBcvzDMSCwQJE0g6Z\nYTVp4mirAwKBgQCo9wY2nzVC4T1pleQoyw4aEfCJMbDYg7vAyEa+ENUOMQTiBAEI\n+zAnHlLkX5rRe8ylVYrcePz6ovxD8rIcEZ/iTahb3ou56JViHRiLA14MW2vq7BZS\nM+0r5kONSLZWurpEjthxIkAzpU2UW5W7/8iwNOR8vUyzWOnF9+u2N/HyRQKBgHZh\nqoaqPqdQX5jwVvU0KKKcqjC/8312zV+Nseat/Kw7DNibK3FjsS7a/pOaGeiy2rdu\n3WRP8PRpQiJmH/WTA44Mib9H1ES9ILOD0myazHp2GV/6nsgQnNLLPWpuippWJl1X\nj/ZpiCE7ZPZKX9vIIUOFmQjbqlw4aXfwpBizGTlDAoGAClURvT+foh02D8uTWb+i\nXUS6Sdu50pGnRumTGaCB7hwaCvMACkY1VoX5l+Sp5rjJOsVyWYuAlHmW0CeZAa8o\nNvD37i7Qtx5v6aHkCLSy2tDZo5S8mj2Gi+N5AkmQSI+SOdGWYORzyPqZbcX6jdkO\nrYO45kVsMgKUidcROAhOdbg=\n-----END PRIVATE KEY-----\n",
  "client_email": "firebase-adminsdk-27q75@back-end-ml.iam.gserviceaccount.com",
  "client_id": "108691226471585918518",
  "auth_uri": "https://accounts.google.com/o/oauth2/auth",
  "token_uri": "https://oauth2.googleapis.com/token",
  "auth_provider_x509_cert_url": "https://www.googleapis.com/oauth2/v1/certs",
  "client_x509_cert_url": "https://www.googleapis.com/robot/v1/metadata/x509/firebase-adminsdk-27q75%40back-end-ml.iam.gserviceaccount.com"
}
